dump.vcd
$date
	Sat Nov 15 10:12:59 2025
$end
$version
	Icarus Verilog
$end
$timescale
	1ps
$end
$scope module tb $end
$var wire 32 ! imem_instr [31:0] $end
$var wire 32 " imem_addr [31:0] $end
$var wire 1 # halted $end
$var wire 1 $ dmem_we $end
$var wire 32 % dmem_wdata [31:0] $end
$var wire 1 & dmem_re $end
$var wire 32 ' dmem_rdata [31:0] $end
$var wire 32 ( dmem_addr [31:0] $end
$var reg 1 ) clk $end
$var reg 1 * reset_n $end
$var integer 32 + a [31:0] $end
$var integer 32 , i [31:0] $end
$var integer 32 - nonzero [31:0] $end
$var integer 32 . ok [31:0] $end
$scope module U_CPU $end
$var wire 1 ) clk $end
$var wire 32 / dmem_addr [31:0] $end
$var wire 32 0 dmem_wdata [31:0] $end
$var wire 1 1 do_branch $end
$var wire 1 # halted $end
$var wire 32 2 imem_addr [31:0] $end
$var wire 32 3 instr [31:0] $end
$var wire 1 * reset_n $end
$var wire 1 4 take_beq $end
$var wire 1 5 take_bne $end
$var wire 32 6 rs2_val [31:0] $end
$var wire 5 7 rs2_mux [4:0] $end
$var wire 5 8 rs2_i [4:0] $end
$var wire 32 9 rs1_val [31:0] $end
$var wire 5 : rs1_mux [4:0] $end
$var wire 5 ; rs1_i [4:0] $end
$var wire 1 < reg_write $end
$var wire 5 = rd [4:0] $end
$var wire 32 > pc_next_norm [31:0] $end
$var wire 32 ? pc_next [31:0] $end
$var wire 7 @ opcode [6:0] $end
$var wire 1 A mem_write $end
$var wire 1 B mem_to_reg $end
$var wire 1 C mem_read $end
$var wire 1 D jump_jalr $end
$var wire 1 E jump_jal $end
$var wire 1 F is_ebreak $end
$var wire 1 G is_aes $end
$var wire 32 H imm_u [31:0] $end
$var wire 32 I imm_s [31:0] $end
$var wire 32 J imm_j [31:0] $end
$var wire 32 K imm_i [31:0] $end
$var wire 32 L imm_for_alu [31:0] $end
$var wire 32 M imm_b [31:0] $end
$var wire 32 N imem_instr [31:0] $end
$var wire 3 O funct3 [2:0] $end
$var wire 1 $ dmem_we $end
$var wire 1 & dmem_re $end
$var wire 32 P dmem_rdata [31:0] $end
$var wire 1 Q branch $end
$var wire 32 R alu_y [31:0] $end
$var wire 1 S alu_src_imm $end
$var wire 4 T alu_op [3:0] $end
$var wire 32 U alu_b [31:0] $end
$var wire 32 V alu_a [31:0] $end
$var wire 1 W aes_dec $end
$var wire 128 X aes_comb_out [127:0] $end
$var reg 1 Y aes_busy $end
$var reg 1 Z aes_mode_dec $end
$var reg 5 [ aes_rd_base [4:0] $end
$var reg 128 \ aes_res [127:0] $end
$var reg 5 ] aes_rs1_base [4:0] $end
$var reg 5 ^ aes_rs2_base [4:0] $end
$var reg 4 _ aes_state [3:0] $end
$var reg 1 ` boot_busy $end
$var reg 4 a boot_idx [3:0] $end
$var reg 128 b data_buf [127:0] $end
$var reg 1 c halt_r $end
$var reg 128 d key_buf [127:0] $end
$var reg 32 e pc [31:0] $end
$var reg 5 f rf_waddr [4:0] $end
$var reg 32 g rf_wdata [31:0] $end
$var reg 1 h rf_we $end
$scope module u_aes $end
$var wire 128 i ark_d [127:0] $end
$var wire 128 j ark_e [127:0] $end
$var wire 128 k data_in [127:0] $end
$var wire 1 Z enc_dec $end
$var wire 128 l key [127:0] $end
$var wire 128 m sr [127:0] $end
$var wire 128 n sb [127:0] $end
$var wire 128 o mc [127:0] $end
$var wire 128 p isr [127:0] $end
$var wire 128 q imc [127:0] $end
$var wire 128 r ib [127:0] $end
$var wire 128 s data_out [127:0] $end
$scope module U_IMC $end
$var wire 128 t in [127:0] $end
$var wire 128 u out [127:0] $end
$scope function mul11 $end
$var reg 8 v a [7:0] $end
$upscope $end
$scope function mul13 $end
$var reg 8 w a [7:0] $end
$upscope $end
$scope function mul14 $end
$var reg 8 x a [7:0] $end
$upscope $end
$scope function mul2 $end
$var reg 8 y a [7:0] $end
$upscope $end
$scope function mul4 $end
$var reg 8 z a [7:0] $end
$upscope $end
$scope function mul8 $end
$var reg 8 { a [7:0] $end
$upscope $end
$scope function mul9 $end
$var reg 8 | a [7:0] $end
$upscope $end
$scope function xtime $end
$var reg 8 } a [7:0] $end
$upscope $end
$scope begin COL[0] $end
$var wire 8 ~ s0 [7:0] $end
$var wire 8 !" s1 [7:0] $end
$var wire 8 "" s2 [7:0] $end
$var wire 8 #" s3 [7:0] $end
$upscope $end
$scope begin COL[1] $end
$var wire 8 $" s0 [7:0] $end
$var wire 8 %" s1 [7:0] $end
$var wire 8 &" s2 [7:0] $end
$var wire 8 '" s3 [7:0] $end
$upscope $end
$scope begin COL[2] $end
$var wire 8 (" s0 [7:0] $end
$var wire 8 )" s1 [7:0] $end
$var wire 8 *" s2 [7:0] $end
$var wire 8 +" s3 [7:0] $end
$upscope $end
$scope begin COL[3] $end
$var wire 8 ," s0 [7:0] $end
$var wire 8 -" s1 [7:0] $end
$var wire 8 ." s2 [7:0] $end
$var wire 8 /" s3 [7:0] $end
$upscope $end
$upscope $end
$scope module U_ISB $end
$var wire 128 0" out [127:0] $end
$var wire 128 1" in [127:0] $end
$scope begin G[0] $end
$scope module SB $end
$var wire 8 2" in [7:0] $end
$var reg 8 3" out [7:0] $end
$upscope $end
$upscope $end
$scope begin G[1] $end
$scope module SB $end
$var wire 8 4" in [7:0] $end
$var reg 8 5" out [7:0] $end
$upscope $end
$upscope $end
$scope begin G[2] $end
$scope module SB $end
$var wire 8 6" in [7:0] $end
$var reg 8 7" out [7:0] $end
$upscope $end
$upscope $end
$scope begin G[3] $end
$scope module SB $end
$var wire 8 8" in [7:0] $end
$var reg 8 9" out [7:0] $end
$upscope $end
$upscope $end
$scope begin G[4] $end
$scope module SB $end
$var wire 8 :" in [7:0] $end
$var reg 8 ;" out [7:0] $end
$upscope $end
$upscope $end
$scope begin G[5] $end
$scope module SB $end
$var wire 8 <" in [7:0] $end
$var reg 8 =" out [7:0] $end
$upscope $end
$upscope $end
$scope begin G[6] $end
$scope module SB $end
$var wire 8 >" in [7:0] $end
$var reg 8 ?" out [7:0] $end
$upscope $end
$upscope $end
$scope begin G[7] $end
$scope module SB $end
$var wire 8 @" in [7:0] $end
$var reg 8 A" out [7:0] $end
$upscope $end
$upscope $end
$scope begin G[8] $end
$scope module SB $end
$var wire 8 B" in [7:0] $end
$var reg 8 C" out [7:0] $end
$upscope $end
$upscope $end
$scope begin G[9] $end
$scope module SB $end
$var wire 8 D" in [7:0] $end
$var reg 8 E" out [7:0] $end
$upscope $end
$upscope $end
$scope begin G[10] $end
$scope module SB $end
$var wire 8 F" in [7:0] $end
$var reg 8 G" out [7:0] $end
$upscope $end
$upscope $end
$scope begin G[11] $end
$scope module SB $end
$var wire 8 H" in [7:0] $end
$var reg 8 I" out [7:0] $end
$upscope $end
$upscope $end
$scope begin G[12] $end
$scope module SB $end
$var wire 8 J" in [7:0] $end
$var reg 8 K" out [7:0] $end
$upscope $end
$upscope $end
$scope begin G[13] $end
$scope module SB $end
$var wire 8 L" in [7:0] $end
$var reg 8 M" out [7:0] $end
$upscope $end
$upscope $end
$scope begin G[14] $end
$scope module SB $end
$var wire 8 N" in [7:0] $end
$var reg 8 O" out [7:0] $end
$upscope $end
$upscope $end
$scope begin G[15] $end
$scope module SB $end
$var wire 8 P" in [7:0] $end
$var reg 8 Q" out [7:0] $end
$upscope $end
$upscope $end
$upscope $end
$scope module U_ISR $end
$var wire 128 R" in [127:0] $end
$var wire 128 S" out [127:0] $end
$upscope $end
$scope module U_MC $end
$var wire 128 T" out [127:0] $end
$var wire 128 U" in [127:0] $end
$scope function xtime2 $end
$var reg 8 V" a [7:0] $end
$upscope $end
$scope function xtime3 $end
$var reg 8 W" a [7:0] $end
$upscope $end
$scope begin COL[0] $end
$var wire 8 X" s0 [7:0] $end
$var wire 8 Y" s1 [7:0] $end
$var wire 8 Z" s2 [7:0] $end
$var wire 8 [" s3 [7:0] $end
$upscope $end
$scope begin COL[1] $end
$var wire 8 \" s0 [7:0] $end
$var wire 8 ]" s1 [7:0] $end
$var wire 8 ^" s2 [7:0] $end
$var wire 8 _" s3 [7:0] $end
$upscope $end
$scope begin COL[2] $end
$var wire 8 `" s0 [7:0] $end
$var wire 8 a" s1 [7:0] $end
$var wire 8 b" s2 [7:0] $end
$var wire 8 c" s3 [7:0] $end
$upscope $end
$scope begin COL[3] $end
$var wire 8 d" s0 [7:0] $end
$var wire 8 e" s1 [7:0] $end
$var wire 8 f" s2 [7:0] $end
$var wire 8 g" s3 [7:0] $end
$upscope $end
$upscope $end
$scope module U_SB $end
$var wire 128 h" in [127:0] $end
$var wire 128 i" out [127:0] $end
$scope begin G[0] $end
$scope module SB $end
$var wire 8 j" in [7:0] $end
$var reg 8 k" out [7:0] $end
$upscope $end
$upscope $end
$scope begin G[1] $end
$scope module SB $end
$var wire 8 l" in [7:0] $end
$var reg 8 m" out [7:0] $end
$upscope $end
$upscope $end
$scope begin G[2] $end
$scope module SB $end
$var wire 8 n" in [7:0] $end
$var reg 8 o" out [7:0] $end
$upscope $end
$upscope $end
$scope begin G[3] $end
$scope module SB $end
$var wire 8 p" in [7:0] $end
$var reg 8 q" out [7:0] $end
$upscope $end
$upscope $end
$scope begin G[4] $end
$scope module SB $end
$var wire 8 r" in [7:0] $end
$var reg 8 s" out [7:0] $end
$upscope $end
$upscope $end
$scope begin G[5] $end
$scope module SB $end
$var wire 8 t" in [7:0] $end
$var reg 8 u" out [7:0] $end
$upscope $end
$upscope $end
$scope begin G[6] $end
$scope module SB $end
$var wire 8 v" in [7:0] $end
$var reg 8 w" out [7:0] $end
$upscope $end
$upscope $end
$scope begin G[7] $end
$scope module SB $end
$var wire 8 x" in [7:0] $end
$var reg 8 y" out [7:0] $end
$upscope $end
$upscope $end
$scope begin G[8] $end
$scope module SB $end
$var wire 8 z" in [7:0] $end
$var reg 8 {" out [7:0] $end
$upscope $end
$upscope $end
$scope begin G[9] $end
$scope module SB $end
$var wire 8 |" in [7:0] $end
$var reg 8 }" out [7:0] $end
$upscope $end
$upscope $end
$scope begin G[10] $end
$scope module SB $end
$var wire 8 ~" in [7:0] $end
$var reg 8 !# out [7:0] $end
$upscope $end
$upscope $end
$scope begin G[11] $end
$scope module SB $end
$var wire 8 "# in [7:0] $end
$var reg 8 ## out [7:0] $end
$upscope $end
$upscope $end
$scope begin G[12] $end
$scope module SB $end
$var wire 8 $# in [7:0] $end
$var reg 8 %# out [7:0] $end
$upscope $end
$upscope $end
$scope begin G[13] $end
$scope module SB $end
$var wire 8 &# in [7:0] $end
$var reg 8 '# out [7:0] $end
$upscope $end
$upscope $end
$scope begin G[14] $end
$scope module SB $end
$var wire 8 (# in [7:0] $end
$var reg 8 )# out [7:0] $end
$upscope $end
$upscope $end
$scope begin G[15] $end
$scope module SB $end
$var wire 8 *# in [7:0] $end
$var reg 8 +# out [7:0] $end
$upscope $end
$upscope $end
$upscope $end
$scope module U_SR $end
$var wire 128 ,# in [127:0] $end
$var wire 128 -# out [127:0] $end
$upscope $end
$upscope $end
$scope module u_alu $end
$var wire 32 .# a [31:0] $end
$var wire 32 /# b [31:0] $end
$var wire 32 0# sa [31:0] $end
$var wire 32 1# sb [31:0] $end
$var wire 4 2# alu_op [3:0] $end
$var reg 32 3# y [31:0] $end
$upscope $end
$scope module u_ctl $end
$var wire 32 4# instr [31:0] $end
$var wire 1 G is_aes $end
$var wire 1 5# opcode_custom0 $end
$var wire 7 6# opcode [6:0] $end
$var wire 1 F is_ebreak $end
$var wire 7 7# funct7 [6:0] $end
$var wire 3 8# funct3 [2:0] $end
$var wire 1 W aes_dec $end
$var reg 4 9# alu_op [3:0] $end
$var reg 1 S alu_src_imm $end
$var reg 1 Q branch $end
$var reg 1 E jump_jal $end
$var reg 1 D jump_jalr $end
$var reg 1 C mem_read $end
$var reg 1 B mem_to_reg $end
$var reg 1 A mem_write $end
$var reg 1 < reg_write $end
$upscope $end
$scope module u_imm $end
$var wire 32 :# instr [31:0] $end
$var reg 32 ;# imm_b [31:0] $end
$var reg 32 <# imm_i [31:0] $end
$var reg 32 =# imm_j [31:0] $end
$var reg 32 ># imm_s [31:0] $end
$var reg 32 ?# imm_u [31:0] $end
$upscope $end
$scope module u_rf $end
$var wire 1 ) clk $end
$var wire 5 @# rd [4:0] $end
$var wire 5 A# rs1 [4:0] $end
$var wire 5 B# rs2 [4:0] $end
$var wire 32 C# wd [31:0] $end
$var wire 1 h we $end
$var wire 32 D# rd2 [31:0] $end
$var wire 32 E# rd1 [31:0] $end
$var integer 32 F# j [31:0] $end
$scope task dump_all_named $end
$upscope $end
$upscope $end
$upscope $end
$scope module U_DMEM $end
$var wire 32 G# addr [31:0] $end
$var wire 1 ) clk $end
$var wire 1 & mem_read $end
$var wire 1 $ mem_write $end
$var wire 32 H# wd [31:0] $end
$var wire 32 I# rd [31:0] $end
$var wire 32 J# a [31:0] $end
$var integer 32 K# i [31:0] $end
$upscope $end
$scope module U_IMEM $end
$var wire 32 L# addr [31:0] $end
$var wire 32 M# instr [31:0] $end
$var integer 32 N# i [31:0] $end
$upscope $end
$upscope $end
$enddefinitions $end
#0
$dumpvars
b100000000 N#
bx M#
bx L#
b10000000000 K#
b0xxxxxxxxxx00 J#
bx I#
bx H#
bx G#
b100000 F#
bx E#
bx D#
bx C#
bx B#
bx A#
bx @#
bx ?#
bx >#
bx =#
bx <#
bx ;#
bx :#
bx 9#
bx 8#
bx 7#
bx 6#
x5#
bx 4#
bx 3#
bx 2#
bx 1#
bx 0#
bx /#
bx .#
bx -#
bx ,#
bx +#
bx *#
bx )#
bx (#
bx '#
bx &#
bx %#
bx $#
bx ##
bx "#
bx !#
bx ~"
bx }"
bx |"
bx {"
bx z"
bx y"
bx x"
bx w"
bx v"
bx u"
bx t"
bx s"
bx r"
bx q"
bx p"
bx o"
bx n"
bx m"
bx l"
bx k"
bx j"
bx i"
bx h"
bx g"
bx f"
bx e"
bx d"
bx c"
bx b"
bx a"
bx `"
bx _"
bx ^"
bx ]"
bx \"
bx ["
bx Z"
bx Y"
bx X"
bx W"
bx V"
bx U"
bx T"
bx S"
bx R"
bx Q"
bx P"
bx O"
bx N"
bx M"
bx L"
bx K"
bx J"
bx I"
bx H"
bx G"
bx F"
bx E"
bx D"
bx C"
bx B"
bx A"
bx @"
bx ?"
bx >"
bx ="
bx <"
bx ;"
bx :"
bx 9"
bx 8"
bx 7"
bx 6"
bx 5"
bx 4"
bx 3"
bx 2"
bx 1"
bx 0"
bx /"
bx ."
bx -"
bx ,"
bx +"
bx *"
bx )"
bx ("
bx '"
bx &"
bx %"
bx $"
bx #"
bx ""
bx !"
bx ~
bx }
bx |
bx {
bx z
bx y
bx x
bx w
bx v
bx u
bx t
bx s
bx r
bx q
bx p
bx o
bx n
bx m
bx l
bx k
bx j
bx i
xh
bx g
bx f
bx e
bx d
xc
bx b
bx a
x`
bx _
bx ^
bx ]
bx \
bx [
xZ
xY
bx X
xW
bx V
bx U
bx T
xS
bx R
xQ
bx P
bx O
bx N
bx M
bx L
bx K
bx J
bx I
bx H
xG
xF
xE
xD
xC
xB
xA
bx @
bx ?
bx >
bx =
x<
bx ;
bx :
bx 9
bx 8
bx 7
bx 6
x5
x4
bx 3
bx 2
x1
bx 0
bx /
bx .
bx -
bx ,
bx +
0*
0)
bx (
bx '
x&
bx %
x$
x#
bx "
bx !
$end
#5000
b1xx001x01xx001x01xx001x01xx001x01xx001x01xx001x01xx001x01xx001x01xx001x01xx001x01xx001x01xx001x01xx001x01xx001x01xx001x01xx001x X
b1xx001x01xx001x01xx001x01xx001x01xx001x01xx001x01xx001x01xx001x01xx001x01xx001x01xx001x01xx001x01xx001x01xx001x01xx001x01xx001x s
b1100011011000110110001101100011011000110110001101100011011000110110001101100011011000110110001101100011011000110110001101100011 j
b1100011011000110110001101100011011000110110001101100011011000110110001101100011011000110110001101100011011000110110001101100011 o
b1100011011000110110001101100011011000110110001101100011011000110110001101100011011000110110001101100011011000110110001101100011 T"
b1010010 3"
b1010010 5"
b1010010 7"
b1010010 9"
b1010010 ;"
b1010010 ="
b1010010 ?"
b1010010 A"
b1010010 C"
b1010010 E"
b1010010 G"
b1010010 I"
b1010010 K"
b1010010 M"
b1010010 O"
b1010010010100100101001001010010010100100101001001010010010100100101001001010010010100100101001001010010010100100101001001010010 r
b1010010010100100101001001010010010100100101001001010010010100100101001001010010010100100101001001010010010100100101001001010010 0"
b1010010 Q"
b0 2"
b0 4"
b0 6"
b0 8"
b0 :"
b0 <"
b0 >"
b0 @"
b0 B"
b0 D"
b0 F"
b0 H"
b0 J"
b0 L"
b0 N"
b0 P"
b1111100100 J#
b1100011 W"
b1100011 V"
b0 p
b0 1"
b0 S"
b1111100111 (
b1111100111 /
b1111100111 G#
b1111100111 R
b1111100111 3#
b1100011 X"
b1100011 Y"
b1100011 Z"
b1100011 ["
b1100011 \"
b1100011 ]"
b1100011 ^"
b1100011 _"
b1100011 `"
b1100011 a"
b1100011 b"
b1100011 c"
b1100011 d"
b1100011 e"
b1100011 f"
b1100011 g"
b0 q
b0 u
b0 R"
14
b0 0#
b0 V
b0 .#
01
b1111100111 1#
b1111100111 U
b1111100111 /#
b1100011011000110110001101100011011000110110001101100011011000110110001101100011011000110110001101100011011000110110001101100011 m
b1100011011000110110001101100011011000110110001101100011011000110110001101100011011000110110001101100011011000110110001101100011 U"
b1100011011000110110001101100011011000110110001101100011011000110110001101100011011000110110001101100011011000110110001101100011 -#
b0 x
b0 |
b0 w
b0 }
b0 y
b0 z
b0 {
b0 v
b0 '
b0 P
b0 I#
b0 %
b0 0
b0 H#
b0 6
b0 D#
b0 9
b0 E#
05
0G
0B
1S
b0 T
b0 2#
b0 9#
0D
0E
0Q
0C
0A
1<
b100 >
b1111100111 L
b1100011 k"
b1100011 m"
b1100011 o"
b1100011 q"
b1100011 s"
b1100011 u"
b1100011 w"
b1100011 y"
b1100011 {"
b1100011 }"
b1100011 !#
b1100011 ##
b1100011 %#
b1100011 '#
b1100011 )#
b1100011011000110110001101100011011000110110001101100011011000110110001101100011011000110110001101100011011000110110001101100011 n
b1100011011000110110001101100011011000110110001101100011011000110110001101100011011000110110001101100011011000110110001101100011 i"
b1100011011000110110001101100011011000110110001101100011011000110110001101100011011000110110001101100011011000110110001101100011 ,#
b1100011 +#
b0 #"
b0 ""
b0 !"
b0 ~
b0 '"
b0 &"
b0 %"
b0 $"
b0 +"
b0 *"
b0 )"
b0 ("
b0 /"
b0 ."
b0 -"
b0 ,"
0$
0&
b0 ?
b111 7
b111 B#
b0 :
b0 A#
b10011 @
b1 =
b0 O
b0 ;
b111 8
05#
b10011 6#
b0 8#
b11111 7#
1W
b101111100110 J
b101111100110 =#
b111110011100000000000000000000 H
b111110011100000000000000000000 ?#
b101111100000 M
b101111100000 ;#
b1111100001 I
b1111100001 >#
b1111100111 K
b1111100111 <#
b0 j"
b0 l"
b0 n"
b0 p"
b0 r"
b0 t"
b0 v"
b0 x"
b0 z"
b0 |"
b0 ~"
b0 "#
b0 $#
b0 &#
b0 (#
b0 *#
b0 i
b0 t
0F
b111110011100000000000010010011 3
b111110011100000000000010010011 4#
b111110011100000000000010010011 :#
b111110011100000000000010010011 !
b111110011100000000000010010011 N
b111110011100000000000010010011 M#
b0 a
1`
b0 g
b0 C#
b0 f
b0 @#
0h
b0 \
b0 b
b0 k
b0 h"
b0 d
b0 l
b0 _
0Y
0#
0c
b0 "
b0 2
b0 L#
b0 e
1)
#10000
0)
#15000
1)
#20000
0)
1*
#25000
b1 a
b110011001000100001000100000000 g
b110011001000100001000100000000 C#
b1010 f
b1010 @#
1h
1)
#30000
0)
#35000
b10 a
b1110111011001100101010101000100 g
b1110111011001100101010101000100 C#
b1011 f
b1011 @#
1h
1)
#40000
0)
#45000
b11 a
b10111011101010101001100110001000 g
b10111011101010101001100110001000 C#
b1100 f
b1100 @#
1h
1)
#50000
0)
#55000
b100 a
b11111111111011101101110111001100 g
b11111111111011101101110111001100 C#
b1101 f
b1101 @#
1h
1)
#60000
0)
#65000
b101 a
b11000000100000000100000000 g
b11000000100000000100000000 C#
b1110 f
b1110 @#
1h
1)
#70000
0)
#75000
b110 a
b111000001100000010100000100 g
b111000001100000010100000100 C#
b1111 f
b1111 @#
1h
1)
#80000
0)
#85000
b111 a
b1011000010100000100100001000 g
b1011000010100000100100001000 C#
b10000 f
b10000 @#
1h
1)
#90000
0)
#95000
b100 ?
0`
b1111000011100000110100001100 g
b1111000011100000110100001100 C#
b10001 f
b10001 @#
1h
1)
#100000
0)
#105000
b1100001000 J#
b1100001001 (
b1100001001 /
b1100001001 G#
b1100001001 R
b1100001001 3#
b1000 ?
b1100001001 1#
b1100001001 U
b1100001001 /#
b1100001001 L
b1000 >
b1001 7
b1001 B#
1S
1<
b10 =
b1001 8
b11000 7#
0W
b101100001000 J
b101100001000 =#
b110000100100000000000000000000 H
b110000100100000000000000000000 ?#
b1100000010 M
b1100000010 ;#
b1100000010 I
b1100000010 >#
b1100001001 K
b1100001001 <#
b110000100100000000000100010011 3
b110000100100000000000100010011 4#
b110000100100000000000100010011 :#
b110000100100000000000100010011 !
b110000100100000000000100010011 N
b110000100100000000000100010011 M#
b1111100111 g
b1111100111 C#
b1 f
b1 @#
b100 "
b100 2
b100 L#
b100 e
1h
1)
#110000
0)
#115000
b1110000 J#
b1110011 (
b1110011 /
b1110011 G#
b1110011 R
b1110011 3#
b1100 ?
b1110011 1#
b1110011 U
b1110011 /#
b1110011 L
b1100 >
b10 :
b10 A#
b10011 7
b10011 B#
1S
1<
b10 ;
b10011 8
b11 7#
1W
b10000100001110010 J
b10000100001110010 =#
b111001100010000000000000000 H
b111001100010000000000000000 ?#
b1100010 M
b1100010 ;#
b1100010 I
b1100010 >#
b1110011 K
b1110011 <#
b111001100010000000100010011 3
b111001100010000000100010011 4#
b111001100010000000100010011 :#
b111001100010000000100010011 !
b111001100010000000100010011 N
b111001100010000000100010011 M#
b1100001001 g
b1100001001 C#
b10 f
b10 @#
b1000 "
b1000 2
b1000 L#
b1000 e
1h
1)
#120000
0)
#125000
b11011110000 J#
b10000 ?
b1100001001 %
b1100001001 0
b1100001001 H#
b1100001001 6
b1100001001 D#
b1100001001 1#
b1100001001 U
b1100001001 /#
b10 L
b11011110000 (
b11011110000 /
b11011110000 G#
b11011110000 R
b11011110000 3#
b10000 >
b1 :
b1 A#
b10 7
b10 B#
0S
1<
04
b1111100111 0#
b1111100111 V
b1111100111 .#
b110011 @
b11 =
b1 ;
b10 8
b110011 6#
b0 7#
0W
b1000000000000010 J
b1000000000000010 =#
b1000001000000000000000 H
b1000001000000000000000 ?#
b100000000010 M
b100000000010 ;#
b11 I
b11 >#
b10 K
b10 <#
b1111100111 9
b1111100111 E#
b1000001000000110110011 3
b1000001000000110110011 4#
b1000001000000110110011 :#
b1000001000000110110011 !
b1000001000000110110011 N
b1000001000000110110011 M#
b1110011 g
b1110011 C#
b1100 "
b1100 2
b1100 L#
b1100 e
1h
1)
#130000
0)
#135000
b1101110100 J#
b10100 ?
b10000000010 L
b1101110100 (
b1101110100 /
b1101110100 G#
b1101110100 R
b1101110100 3#
b10100 >
b1 T
b1 2#
b1 9#
1<
b1110011 1#
b1110011 U
b1110011 /#
b100 =
b100000 7#
b1000010000000010 J
b1000010000000010 =#
b1000000001000001000000000000000 H
b1000000001000001000000000000000 ?#
b10000000100 M
b10000000100 ;#
b10000000100 I
b10000000100 >#
b10000000010 K
b10000000010 <#
b1110011 %
b1110011 0
b1110011 H#
b1110011 6
b1110011 D#
b1000000001000001000001000110011 3
b1000000001000001000001000110011 4#
b1000000001000001000001000110011 :#
b1000000001000001000001000110011 !
b1000000001000001000001000110011 N
b1000000001000001000001000110011 M#
b11011110000 g
b11011110000 C#
b11 f
b11 @#
b10000 "
b10000 2
b10000 L#
b10000 e
1h
1)
#140000
0)
#145000
b1110010100 J#
b11000 ?
b1110010100 (
b1110010100 /
b1110010100 G#
b1110010100 R
b1110010100 3#
b10 L
b11000 >
b100 T
b100 2#
b100 9#
1<
b101 =
b100 O
b100 8#
b0 7#
b1100000000000010 J
b1100000000000010 =#
b1000001100000000000000 H
b1000001100000000000000 ?#
b100000000100 M
b100000000100 ;#
b101 I
b101 >#
b10 K
b10 <#
b1000001100001010110011 3
b1000001100001010110011 4#
b1000001100001010110011 :#
b1000001100001010110011 !
b1000001100001010110011 N
b1000001100001010110011 M#
b1101110100 g
b1101110100 C#
b100 f
b100 @#
b10100 "
b10100 2
b10100 L#
b10100 e
1h
1)
#150000
0)
#155000
b1111110100 J#
b11100 ?
b1111110111 (
b1111110111 /
b1111110111 G#
b1111110111 R
b1111110111 3#
b11100 >
b11 T
b11 2#
b11 9#
1<
b110 =
b110 O
b110 8#
b1110000000000010 J
b1110000000000010 =#
b1000001110000000000000 H
b1000001110000000000000 ?#
b110 M
b110 ;#
b110 I
b110 >#
b1000001110001100110011 3
b1000001110001100110011 4#
b1000001110001100110011 :#
b1000001110001100110011 !
b1000001110001100110011 N
b1000001110001100110011 M#
b1110010100 g
b1110010100 C#
b101 f
b101 @#
b11000 "
b11000 2
b11000 L#
b11000 e
1h
1)
#160000
0)
#165000
b0 0#
b0 V
b0 .#
b0 J#
b100000 ?
b0 9
b0 E#
b0 (
b0 /
b0 G#
b0 R
b0 3#
b100000 >
b0 :
b0 A#
b10 T
b10 2#
b10 9#
1<
b111 =
b111 O
b0 ;
b111 8#
b111000000000010 J
b111000000000010 =#
b1000000111000000000000 H
b1000000111000000000000 ?#
b100000000110 M
b100000000110 ;#
b111 I
b111 >#
b1000000111001110110011 3
b1000000111001110110011 4#
b1000000111001110110011 :#
b1000000111001110110011 !
b1000000111001110110011 N
b1000000111001110110011 M#
b1111110111 g
b1111110111 C#
b110 f
b110 @#
b11100 "
b11100 2
b11100 L#
b11100 e
1h
1)
#170000
0)
#175000
b11000000100000000100000000 0#
b11000000100000000100000000 V
b11000000100000000100000000 .#
b110011001000100001000100000000 1#
b110011001000100001000100000000 U
b110011001000100001000100000000 /#
b1000000000 J#
b100100 ?
b11000000100000000100000000 9
b11000000100000000100000000 E#
b110011001000100001000100000000 %
b110011001000100001000100000000 0
b110011001000100001000100000000 H#
b110011001000100001000100000000 6
b110011001000100001000100000000 D#
b110110001001000001001000000000 (
b110110001001000001001000000000 /
b110110001001000001001000000000 G#
b110110001001000001001000000000 R
b110110001001000001001000000000 3#
b1010 L
b100100 >
b1110 :
b1110 A#
b1010 7
b1010 B#
1G
b0 T
b0 2#
b0 9#
0<
b1011 @
b10010 =
b0 O
b1110 ;
b1010 8
15#
b1011 6#
b0 8#
b1110000000000001010 J
b1110000000000001010 =#
b101001110000000000000000 H
b101001110000000000000000 ?#
b10010 M
b10010 ;#
b10010 I
b10010 >#
b1010 K
b1010 <#
b101001110000100100001011 3
b101001110000100100001011 4#
b101001110000100100001011 :#
b101001110000100100001011 !
b101001110000100100001011 N
b101001110000100100001011 M#
b0 g
b0 C#
b111 f
b111 @#
b100000 "
b100000 2
b100000 L#
b100000 e
1h
1)
#180000
0)
#185000
b110010 L
b101000 >
b1100011011000110110001101100011011000110110001101100011011000110110001101100011011000110110001101100011011000110110001101100011 X
b1100011011000110110001101100011011000110110001101100011011000110110001101100011011000110110001101100011011000110110001101100011 s
b10110 =
b10010 8
b1 7#
1W
b1110000000000110010 J
b1110000000000110010 =#
b11001001110000000000000000 H
b11001001110000000000000000 ?#
b110110 M
b110110 ;#
b110110 I
b110110 >#
b110010 K
b110010 <#
b11001001110000101100001011 3
b11001001110000101100001011 4#
b11001001110000101100001011 :#
b11001001110000101100001011 !
b11001001110000101100001011 N
b11001001110000101100001011 M#
0Z
b10010 [
b1010 ^
b1110 ]
1Y
b100100 "
b100100 2
b100100 L#
b100100 e
0h
1)
#190000
0)
